{
  "source": [
    {
      "link": "https://docs.google.com/spreadsheets/d/e/2PACX-1vRDA8DEh2NRfvljEQyqCHXV5r2Ebx5jqgEYDouFCRi26X-vECnjIUnyBGZg1eQdBwpPJX0T3RVeTX0F/pub?gid=108328164&single=true&output=csv",
      "link2": "https://spreadsheets.google.com/feeds/list/1tsMcmUNYExrbmKuteIkFLQTIZOT0PDXr1qzmiVIt0PE/1/public/values?alt=json",
      "gid": "108328164",
      "title": "Nasional"
    },
    {
      "link": "https://docs.google.com/spreadsheets/d/e/2PACX-1vRDA8DEh2NRfvljEQyqCHXV5r2Ebx5jqgEYDouFCRi26X-vECnjIUnyBGZg1eQdBwpPJX0T3RVeTX0F/pub?gid=0&single=true&output=csv",
      "link2": "https://spreadsheets.google.com/feeds/list/1tsMcmUNYExrbmKuteIkFLQTIZOT0PDXr1qzmiVIt0PE/2/public/values?alt=json",
      "gid": "0",
      "title": "TotalKasus"
    },
    {
      "link": "https://docs.google.com/spreadsheets/d/e/2PACX-1vRDA8DEh2NRfvljEQyqCHXV5r2Ebx5jqgEYDouFCRi26X-vECnjIUnyBGZg1eQdBwpPJX0T3RVeTX0F/pub?gid=370899175&single=true&output=csv",
      "gid": "370899175",
      "link2": "https://spreadsheets.google.com/feeds/list/1tsMcmUNYExrbmKuteIkFLQTIZOT0PDXr1qzmiVIt0PE/3/public/values?alt=json",
      "title": "KasusHarian"
    },
    {
      "link": "https://docs.google.com/spreadsheets/d/e/2PACX-1vRDA8DEh2NRfvljEQyqCHXV5r2Ebx5jqgEYDouFCRi26X-vECnjIUnyBGZg1eQdBwpPJX0T3RVeTX0F/pub?gid=479124939&single=true&output=csv",
      "gid": "479124939",
      "link2": "https://spreadsheets.google.com/feeds/list/1tsMcmUNYExrbmKuteIkFLQTIZOT0PDXr1qzmiVIt0PE/4/public/values?alt=json",
      "title": "Sembuh"
    },
    {
      "link": "https://docs.google.com/spreadsheets/d/e/2PACX-1vRDA8DEh2NRfvljEQyqCHXV5r2Ebx5jqgEYDouFCRi26X-vECnjIUnyBGZg1eQdBwpPJX0T3RVeTX0F/pub?gid=2108391661&single=true&output=csv",
      "gid": "2108391661",
      "link2": "https://spreadsheets.google.com/feeds/list/1tsMcmUNYExrbmKuteIkFLQTIZOT0PDXr1qzmiVIt0PE/5/public/values?alt=json",
      "title": "SembuhHarian"
    },
    {
      "link": "https://docs.google.com/spreadsheets/d/e/2PACX-1vRDA8DEh2NRfvljEQyqCHXV5r2Ebx5jqgEYDouFCRi26X-vECnjIUnyBGZg1eQdBwpPJX0T3RVeTX0F/pub?gid=36853958&single=true&output=csv",
      "gid": "36853958",
      "link2": "https://spreadsheets.google.com/feeds/list/1tsMcmUNYExrbmKuteIkFLQTIZOT0PDXr1qzmiVIt0PE/6/public/values?alt=json",
      "title": "MeninggalDunia"
    },
    {
      "link": "https://docs.google.com/spreadsheets/d/e/2PACX-1vRDA8DEh2NRfvljEQyqCHXV5r2Ebx5jqgEYDouFCRi26X-vECnjIUnyBGZg1eQdBwpPJX0T3RVeTX0F/pub?gid=1934082072&single=true&output=csv",
      "gid": "1934082072",
      "link2": "https://spreadsheets.google.com/feeds/list/1tsMcmUNYExrbmKuteIkFLQTIZOT0PDXr1qzmiVIt0PE/7/public/values?alt=json",
      "title": "MeninggalDuniaHarian"
    },
    {
      "link": "https://docs.google.com/spreadsheets/d/e/2PACX-1vRDA8DEh2NRfvljEQyqCHXV5r2Ebx5jqgEYDouFCRi26X-vECnjIUnyBGZg1eQdBwpPJX0T3RVeTX0F/pub?gid=1171019834&single=true&output=csv",
      "gid": "1171019834",
      "link2": "https://spreadsheets.google.com/feeds/list/1tsMcmUNYExrbmKuteIkFLQTIZOT0PDXr1qzmiVIt0PE/8/public/values?alt=json",
      "title": "Perawatan"
    }
  ]
}